…
Given that we already have the average steps in each 5-minute interval, this would be the value to fill the NAs.

### 3. Create a new dataset that is equal to the original dataset but with the missing data filled in.


```r
activity_fixed <- activity %>% 
  left_join(steps_interval, by="interval") %>%
  mutate(steps=ifelse(is.na(steps),avg_steps_taken,steps)) %>%
  select(-avg_steps_taken)
activity_fixed
```

```
## # A tibble: 17,568 x 3
##     steps date       interval
##     <dbl> <date>     <fct>   
##  1 1.72   2012-10-01 0       
##  2 0.340  2012-10-01 5       
##  3 0.132  2012-10-01 10      
##  4 0.151  2012-10-01 15      
##  5 0.0755 2012-10-01 20      
##  6 2.09   2012-10-01 25      
##  7 0.528  2012-10-01 30      
##  8 0.868  2012-10-01 35      
##  9 0      2012-10-01 40      
## 10 1.47   2012-10-01 45      
## # ... with 17,558 more rows
```
…
